<?xml version="1.0" encoding="UTF-8" standalone="no"?>
<!DOCTYPE svg PUBLIC "-//W3C//DTD SVG 1.1//EN"
 "http://www.w3.org/Graphics/SVG/1.1/DTD/svg11.dtd">
<!-- Generated by graphviz version 2.49.0 (20210828.1703)
 -->
<!-- Title: PHPTreeGraph Pages: 1 -->
<svg width="417pt" height="404pt"
 viewBox="0.00 0.00 416.89 404.00" xmlns="http://www.w3.org/2000/svg" xmlns:xlink="http://www.w3.org/1999/xlink">
<g id="graph0" class="graph" transform="scale(1 1) rotate(0) translate(4 400)">
<title>PHPTreeGraph</title>
<!-- ff19bbfb0d23ab419580b07cf09691e75d3d06f6 -->
<g id="node1" class="node">
<title>ff19bbfb0d23ab419580b07cf09691e75d3d06f6</title>
<ellipse fill="none" stroke="floralwhite" cx="160.44" cy="-378" rx="27" ry="18"/>
<text text-anchor="middle" x="160.44" y="-374.3" font-family="Times,serif" font-size="14.00" fill="floralwhite">root</text>
</g>
<!-- 72acacd53b02ea955ffb4d3df7d059b4d14dd5de -->
<g id="node2" class="node">
<title>72acacd53b02ea955ffb4d3df7d059b4d14dd5de</title>
<ellipse fill="none" stroke="floralwhite" cx="160.44" cy="-306" rx="72.59" ry="18"/>
<text text-anchor="middle" x="160.44" y="-302.3" font-family="Times,serif" font-size="14.00" fill="floralwhite">Stmt_Expression</text>
</g>
<!-- ff19bbfb0d23ab419580b07cf09691e75d3d06f6&#45;&gt;72acacd53b02ea955ffb4d3df7d059b4d14dd5de -->
<g id="edge1" class="edge">
<title>ff19bbfb0d23ab419580b07cf09691e75d3d06f6&#45;&gt;72acacd53b02ea955ffb4d3df7d059b4d14dd5de</title>
<path fill="none" stroke="floralwhite" d="M160.44,-359.7C160.44,-351.98 160.44,-342.71 160.44,-334.11"/>
<polygon fill="floralwhite" stroke="floralwhite" points="163.94,-334.1 160.44,-324.1 156.94,-334.1 163.94,-334.1"/>
</g>
<!-- 396bc922332c99fc22af1cb6547485a02248e32b -->
<g id="node3" class="node">
<title>396bc922332c99fc22af1cb6547485a02248e32b</title>
<ellipse fill="none" stroke="floralwhite" cx="160.44" cy="-234" rx="58.49" ry="18"/>
<text text-anchor="middle" x="160.44" y="-230.3" font-family="Times,serif" font-size="14.00" fill="floralwhite">Expr_Assign</text>
</g>
<!-- 72acacd53b02ea955ffb4d3df7d059b4d14dd5de&#45;&gt;396bc922332c99fc22af1cb6547485a02248e32b -->
<g id="edge2" class="edge">
<title>72acacd53b02ea955ffb4d3df7d059b4d14dd5de&#45;&gt;396bc922332c99fc22af1cb6547485a02248e32b</title>
<path fill="none" stroke="floralwhite" d="M160.44,-287.7C160.44,-279.98 160.44,-270.71 160.44,-262.11"/>
<polygon fill="floralwhite" stroke="floralwhite" points="163.94,-262.1 160.44,-252.1 156.94,-262.1 163.94,-262.1"/>
</g>
<!-- 5d38bd6cdd1b8bfce0eba654ccd5e7fa08f10f55 -->
<g id="node4" class="node">
<title>5d38bd6cdd1b8bfce0eba654ccd5e7fa08f10f55</title>
<ellipse fill="none" stroke="floralwhite" cx="75.44" cy="-162" rx="63.09" ry="18"/>
<text text-anchor="middle" x="75.44" y="-158.3" font-family="Times,serif" font-size="14.00" fill="floralwhite">Expr_Variable</text>
</g>
<!-- 396bc922332c99fc22af1cb6547485a02248e32b&#45;&gt;5d38bd6cdd1b8bfce0eba654ccd5e7fa08f10f55 -->
<g id="edge3" class="edge">
<title>396bc922332c99fc22af1cb6547485a02248e32b&#45;&gt;5d38bd6cdd1b8bfce0eba654ccd5e7fa08f10f55</title>
<path fill="none" stroke="floralwhite" d="M140.73,-216.76C129.46,-207.49 115.17,-195.71 102.83,-185.55"/>
<polygon fill="floralwhite" stroke="floralwhite" points="105,-182.8 95.05,-179.15 100.55,-188.21 105,-182.8"/>
</g>
<!-- 31706fb5161e37552b3fe49992e52cb056220c0a -->
<g id="node5" class="node">
<title>31706fb5161e37552b3fe49992e52cb056220c0a</title>
<ellipse fill="none" stroke="floralwhite" cx="245.44" cy="-162" rx="89.08" ry="18"/>
<text text-anchor="middle" x="245.44" y="-158.3" font-family="Times,serif" font-size="14.00" fill="floralwhite">Expr_BinaryOp_Plus</text>
</g>
<!-- 396bc922332c99fc22af1cb6547485a02248e32b&#45;&gt;31706fb5161e37552b3fe49992e52cb056220c0a -->
<g id="edge4" class="edge">
<title>396bc922332c99fc22af1cb6547485a02248e32b&#45;&gt;31706fb5161e37552b3fe49992e52cb056220c0a</title>
<path fill="none" stroke="floralwhite" d="M180.16,-216.76C191.16,-207.71 205.04,-196.27 217.18,-186.28"/>
<polygon fill="floralwhite" stroke="floralwhite" points="219.75,-188.69 225.25,-179.63 215.3,-183.29 219.75,-188.69"/>
</g>
<!-- d56b1243b763cad969782253646c9a7a67d583b8 -->
<g id="node6" class="node">
<title>d56b1243b763cad969782253646c9a7a67d583b8</title>
<ellipse fill="none" stroke="floralwhite" cx="155.44" cy="-90" rx="88.28" ry="18"/>
<text text-anchor="middle" x="155.44" y="-86.3" font-family="Times,serif" font-size="14.00" fill="floralwhite">Expr_BinaryOp_Mul</text>
</g>
<!-- 31706fb5161e37552b3fe49992e52cb056220c0a&#45;&gt;d56b1243b763cad969782253646c9a7a67d583b8 -->
<g id="edge5" class="edge">
<title>31706fb5161e37552b3fe49992e52cb056220c0a&#45;&gt;d56b1243b763cad969782253646c9a7a67d583b8</title>
<path fill="none" stroke="floralwhite" d="M224.11,-144.41C212.43,-135.32 197.77,-123.92 185,-113.99"/>
<polygon fill="floralwhite" stroke="floralwhite" points="186.97,-111.09 176.93,-107.71 182.68,-116.61 186.97,-111.09"/>
</g>
<!-- 92b37e04e33d97d92b8e01c14a0189047acdea40 -->
<g id="node9" class="node">
<title>92b37e04e33d97d92b8e01c14a0189047acdea40</title>
<ellipse fill="none" stroke="floralwhite" cx="335.44" cy="-90" rx="73.39" ry="18"/>
<text text-anchor="middle" x="335.44" y="-86.3" font-family="Times,serif" font-size="14.00" fill="floralwhite">Scalar_LNumber</text>
</g>
<!-- 31706fb5161e37552b3fe49992e52cb056220c0a&#45;&gt;92b37e04e33d97d92b8e01c14a0189047acdea40 -->
<g id="edge8" class="edge">
<title>31706fb5161e37552b3fe49992e52cb056220c0a&#45;&gt;92b37e04e33d97d92b8e01c14a0189047acdea40</title>
<path fill="none" stroke="floralwhite" d="M266.77,-144.41C278.54,-135.26 293.33,-123.76 306.17,-113.77"/>
<polygon fill="floralwhite" stroke="floralwhite" points="308.52,-116.37 314.27,-107.47 304.23,-110.85 308.52,-116.37"/>
</g>
<!-- b2f5cf8b3bae93438221d647de14030420950a00 -->
<g id="node7" class="node">
<title>b2f5cf8b3bae93438221d647de14030420950a00</title>
<ellipse fill="none" stroke="floralwhite" cx="73.44" cy="-18" rx="73.39" ry="18"/>
<text text-anchor="middle" x="73.44" y="-14.3" font-family="Times,serif" font-size="14.00" fill="floralwhite">Scalar_LNumber</text>
</g>
<!-- d56b1243b763cad969782253646c9a7a67d583b8&#45;&gt;b2f5cf8b3bae93438221d647de14030420950a00 -->
<g id="edge6" class="edge">
<title>d56b1243b763cad969782253646c9a7a67d583b8&#45;&gt;b2f5cf8b3bae93438221d647de14030420950a00</title>
<path fill="none" stroke="floralwhite" d="M136.01,-72.41C125.39,-63.34 112.07,-51.97 100.45,-42.06"/>
<polygon fill="floralwhite" stroke="floralwhite" points="102.61,-39.3 92.74,-35.47 98.07,-44.62 102.61,-39.3"/>
</g>
<!-- 387e5f1e6c66d888156c368723630d9161bf9ef5 -->
<g id="node8" class="node">
<title>387e5f1e6c66d888156c368723630d9161bf9ef5</title>
<ellipse fill="none" stroke="floralwhite" cx="238.44" cy="-18" rx="73.39" ry="18"/>
<text text-anchor="middle" x="238.44" y="-14.3" font-family="Times,serif" font-size="14.00" fill="floralwhite">Scalar_LNumber</text>
</g>
<!-- d56b1243b763cad969782253646c9a7a67d583b8&#45;&gt;387e5f1e6c66d888156c368723630d9161bf9ef5 -->
<g id="edge7" class="edge">
<title>d56b1243b763cad969782253646c9a7a67d583b8&#45;&gt;387e5f1e6c66d888156c368723630d9161bf9ef5</title>
<path fill="none" stroke="floralwhite" d="M175.11,-72.41C185.86,-63.34 199.35,-51.97 211.1,-42.06"/>
<polygon fill="floralwhite" stroke="floralwhite" points="213.53,-44.59 218.91,-35.47 209.01,-39.24 213.53,-44.59"/>
</g>
</g>
</svg>
